{
  "prepare_queue": {
    "installed": [],
    "uninstalled": []
  },
  "config_munge": {
    "files": {}
  },
  "installed_plugins": {
    "cordova-plugin-androidx-adapter": {
      "PACKAGE_NAME": "io.ionic.starter"
    },
    "cordova-plugin-device": {
      "PACKAGE_NAME": "io.ionic.starter"
    },
    "cordova-plugin-firebasex": {
      "FIREBASE_ANALYTICS_COLLECTION_ENABLED": "true",
      "FIREBASE_PERFORMANCE_COLLECTION_ENABLED": "true",
      "FIREBASE_CRASHLYTICS_COLLECTION_ENABLED": "true",
      "ANDROID_ICON_ACCENT": "#FF00FFFF",
      "ANDROID_FIREBASE_PERFORMANCE_MONITORING": "false",
      "ANDROID_PLAY_SERVICES_TAGMANAGER_VERSION": "17.0.0",
      "ANDROID_PLAY_SERVICES_AUTH_VERSION": "19.0.0",
      "ANDROID_FIREBASE_ANALYTICS_VERSION": "19.0.0",
      "ANDROID_FIREBASE_MESSAGING_VERSION": "22.0.0",
      "ANDROID_FIREBASE_CONFIG_VERSION": "21.0.0",
      "ANDROID_FIREBASE_PERF_VERSION": "20.0.2",
      "ANDROID_FIREBASE_AUTH_VERSION": "21.0.1",
      "ANDROID_FIREBASE_INAPPMESSAGING_VERSION": "20.0.0",
      "ANDROID_FIREBASE_FIRESTORE_VERSION": "23.0.2",
      "ANDROID_FIREBASE_FUNCTIONS_VERSION": "20.0.0",
      "ANDROID_FIREBASE_IID_VERSION": "21.1.0",
      "ANDROID_FIREBASE_INSTALLATIONS_VERSION": "17.0.0",
      "ANDROID_FIREBASE_CRASHLYTICS_VERSION": "18.1.0",
      "ANDROID_FIREBASE_CRASHLYTICS_NDK_VERSION": "18.1.0",
      "ANDROID_GSON_VERSION": "2.8.7",
      "ANDROID_FIREBASE_PERF_GRADLE_PLUGIN_VERSION": "1.4.0",
      "PACKAGE_NAME": "io.ionic.starter"
    },
    "cordova-plugin-ionic-keyboard": {
      "PACKAGE_NAME": "io.ionic.starter"
    },
    "cordova-plugin-ionic-webview": {
      "ANDROID_SUPPORT_ANNOTATIONS_VERSION": "27.+",
      "PACKAGE_NAME": "io.ionic.starter"
    },
    "cordova-plugin-splashscreen": {
      "PACKAGE_NAME": "io.ionic.starter"
    },
    "cordova-plugin-statusbar": {
      "PACKAGE_NAME": "io.ionic.starter"
    },
    "cordova-plugin-whitelist": {
      "PACKAGE_NAME": "io.ionic.starter"
    }
  },
  "dependent_plugins": {}
}
